{
  "code": 0,
  "success": true,
  "timestamp": 1456725865165,
  "data":{
  "count": 4,
"currentPage": 1,
"pageCount": 10,
"startNum": 0,
  	"list":[
  	{
  		"id":"1",
  		"name":"333",
  		"status":"在岗",
  		"type":"客串",
  		"hezai":"33",
  		"unit":"人"
  	},
  	{
  		"id":"2",
  		"name":"333",
  		"status":"在岗",
  		"type":"客串",
  		"hezai":"33",
  		"unit":"人"
  	},
  	{
  		"id":"3",
  		"name":"333",
  		"status":"在岗",
  		"type":"客串",
  		"hezai":"33",
  		"unit":"人"
  	}
  ]
  }
}